<?xml version="1.0" encoding="UTF-8" ?>
<testsuite failures="0" time="0.019" errors="0" skipped="0" tests="15" name="mieszko.test.PersonTest">
  <properties>
    <property name="java.runtime.name" value="Java(TM) SE Runtime Environment"/>
    <property name="sun.boot.library.path" value="C:\Program Files\Java\jdk1.7.0_25\jre\bin"/>
    <property name="java.vm.version" value="23.25-b01"/>
    <property name="java.vm.vendor" value="Oracle Corporation"/>
    <property name="java.vendor.url" value="http://java.oracle.com/"/>
    <property name="path.separator" value=";"/>
    <property name="java.vm.name" value="Java HotSpot(TM) 64-Bit Server VM"/>
    <property name="file.encoding.pkg" value="sun.io"/>
    <property name="user.script" value=""/>
    <property name="user.country" value="IE"/>
    <property name="sun.java.launcher" value="SUN_STANDARD"/>
    <property name="sun.os.patch.level" value="Service Pack 1"/>
    <property name="java.vm.specification.name" value="Java Virtual Machine Specification"/>
    <property name="user.dir" value="C:\playground\GameMaven-master\GameMaven-master\GameMaven"/>
    <property name="java.runtime.version" value="1.7.0_25-b17"/>
    <property name="java.awt.graphicsenv" value="sun.awt.Win32GraphicsEnvironment"/>
    <property name="basedir" value="C:\playground\GameMaven-master\GameMaven-master\GameMaven"/>
    <property name="java.endorsed.dirs" value="C:\Program Files\Java\jdk1.7.0_25\jre\lib\endorsed"/>
    <property name="os.arch" value="amd64"/>
    <property name="surefire.real.class.path" value="C:\playground\GameMaven-master\GameMaven-master\GameMaven\target\surefire\surefirebooter3106272891585398057.jar"/>
    <property name="java.io.tmpdir" value="C:\Users\brennpad\AppData\Local\Temp\"/>
    <property name="line.separator" value="
"/>
    <property name="java.vm.specification.vendor" value="Oracle Corporation"/>
    <property name="user.variant" value=""/>
    <property name="os.name" value="Windows 7"/>
    <property name="maven.ext.class.path" value="C:\Users\brennpad\.hudson\maven\slavebundle\resources;C:\Users\brennpad\.hudson\maven\slavebundle\lib\maven3-eventspy-3.0.jar;C:\devtools\hudson\hudson-3.0.1\WEB-INF\lib\hudson-remoting-3.0.0.jar"/>
    <property name="sun.jnu.encoding" value="Cp1252"/>
    <property name="java.library.path" value="C:\Program Files\Java\jdk1.7.0_25\jre\bin;C:\Windows\Sun\Java\bin;C:\Windows\system32;C:\Windows;C:\Program Files\Java\jdk1.7.0_25\bin;C:\devtools\rubydev\bin;C:\Ruby192\bin;C:\Program Files\Common Files\Microsoft Shared\Windows Live;C:\Program Files (x86)\Common Files\Microsoft Shared\Windows Live;C:\devtools\org.tmatesoft.svn_1.3.8.standalone\svnkit-1.3.8\bin;C:\casDevEnv01\apache-maven-2.2.1\bin;C:\oraclexe\app\oracle\product\11.2.0\server\bin;C:\Program Files\RA2HP\;C:\Windows\system32;C:\Windows;C:\Windows\System32\Wbem;C:\Windows\System32\WindowsPowerShell\v1.0\;C:\Program Files\ActivIdentity\ActivClient\;C:\Program Files (x86)\ActivIdentity\ActivClient\;C:\Program Files\WIDCOMM\Bluetooth Software\;C:\Program Files\WIDCOMM\Bluetooth Software\syswow64;C:\Program Files (x86)\Git\cmd;C:\Program Files (x86)\Windows Live\Shared;C:\Program Files\Code Collaborator Client;C:\Program Files (x86)\Groovy\Groovy-2.1.2\bin;C:\Python33;C:\Program Files\TortoiseSVN\bin;C:\Program Files (x86)\Notepad++;C:\Program Files (x86)\bin\;C:\Program Files\Vertica Systems\bin;C:\Program Files (x86)\Vertica Systems_6_1_1\bin;."/>
    <property name="surefire.test.class.path" value="C:\playground\GameMaven-master\GameMaven-master\GameMaven\target\test-classes;C:\playground\GameMaven-master\GameMaven-master\GameMaven\target\classes;C:\dev\dependencies\m2eclipse\repository_dp11\junit\junit\4.10\junit-4.10.jar;C:\dev\dependencies\m2eclipse\repository_dp11\org\hamcrest\hamcrest-core\1.1\hamcrest-core-1.1.jar;C:\dev\dependencies\m2eclipse\repository_dp11\log4j\log4j\1.2.16\log4j-1.2.16.jar;C:\dev\dependencies\m2eclipse\repository_dp11\org\hsqldb\hsqldb\2.2.4\hsqldb-2.2.4.jar;"/>
    <property name="hudson.eventspy.port" value="52292"/>
    <property name="java.specification.name" value="Java Platform API Specification"/>
    <property name="java.class.version" value="51.0"/>
    <property name="sun.management.compiler" value="HotSpot 64-Bit Tiered Compilers"/>
    <property name="os.version" value="6.1"/>
    <property name="user.home" value="C:\Users\brennpad"/>
    <property name="user.timezone" value="Europe/London"/>
    <property name="java.awt.printerjob" value="sun.awt.windows.WPrinterJob"/>
    <property name="java.specification.version" value="1.7"/>
    <property name="file.encoding" value="Cp1252"/>
    <property name="user.name" value="brennpad"/>
    <property name="java.class.path" value="C:\playground\GameMaven-master\GameMaven-master\GameMaven\target\test-classes;C:\playground\GameMaven-master\GameMaven-master\GameMaven\target\classes;C:\dev\dependencies\m2eclipse\repository_dp11\junit\junit\4.10\junit-4.10.jar;C:\dev\dependencies\m2eclipse\repository_dp11\org\hamcrest\hamcrest-core\1.1\hamcrest-core-1.1.jar;C:\dev\dependencies\m2eclipse\repository_dp11\log4j\log4j\1.2.16\log4j-1.2.16.jar;C:\dev\dependencies\m2eclipse\repository_dp11\org\hsqldb\hsqldb\2.2.4\hsqldb-2.2.4.jar;"/>
    <property name="java.vm.specification.version" value="1.7"/>
    <property name="sun.arch.data.model" value="64"/>
    <property name="java.home" value="C:\Program Files\Java\jdk1.7.0_25\jre"/>
    <property name="sun.java.command" value="C:\playground\GameMaven-master\GameMaven-master\GameMaven\target\surefire\surefirebooter3106272891585398057.jar C:\playground\GameMaven-master\GameMaven-master\GameMaven\target\surefire\surefire6755868559224123617tmp C:\playground\GameMaven-master\GameMaven-master\GameMaven\target\surefire\surefire9103718391329898535tmp"/>
    <property name="java.specification.vendor" value="Oracle Corporation"/>
    <property name="user.language" value="en"/>
    <property name="awt.toolkit" value="sun.awt.windows.WToolkit"/>
    <property name="java.vm.info" value="mixed mode"/>
    <property name="java.version" value="1.7.0_25"/>
    <property name="java.ext.dirs" value="C:\Program Files\Java\jdk1.7.0_25\jre\lib\ext;C:\Windows\Sun\Java\lib\ext"/>
    <property name="sun.boot.class.path" value="C:\Program Files\Java\jdk1.7.0_25\jre\lib\resources.jar;C:\Program Files\Java\jdk1.7.0_25\jre\lib\rt.jar;C:\Program Files\Java\jdk1.7.0_25\jre\lib\sunrsasign.jar;C:\Program Files\Java\jdk1.7.0_25\jre\lib\jsse.jar;C:\Program Files\Java\jdk1.7.0_25\jre\lib\jce.jar;C:\Program Files\Java\jdk1.7.0_25\jre\lib\charsets.jar;C:\Program Files\Java\jdk1.7.0_25\jre\lib\jfr.jar;C:\Program Files\Java\jdk1.7.0_25\jre\classes"/>
    <property name="java.vendor" value="Oracle Corporation"/>
    <property name="localRepository" value="C:\dev\dependencies\m2eclipse\repository_dp11"/>
    <property name="file.separator" value="\"/>
    <property name="java.vendor.url.bug" value="http://bugreport.sun.com/bugreport/"/>
    <property name="sun.cpu.endian" value="little"/>
    <property name="sun.io.unicode.encoding" value="UnicodeLittle"/>
    <property name="sun.desktop" value="windows"/>
    <property name="sun.cpu.isalist" value="amd64"/>
  </properties>
  <testcase time="0" classname="mieszko.test.PersonTest" name="testAddGame"/>
  <testcase time="0" classname="mieszko.test.PersonTest" name="testDeleteAllGame"/>
  <testcase time="0" classname="mieszko.test.PersonTest" name="testDeleteGame"/>
  <testcase time="0" classname="mieszko.test.PersonTest" name="testSetName"/>
  <testcase time="0.001" classname="mieszko.test.PersonTest" name="testGetName"/>
  <testcase time="0" classname="mieszko.test.PersonTest" name="testPerson"/>
  <testcase time="0.001" classname="mieszko.test.PersonTest" name="testEditGamePrize"/>
  <testcase time="0" classname="mieszko.test.PersonTest" name="testEditGameReleaseYear"/>
  <testcase time="0" classname="mieszko.test.PersonTest" name="testEditGameType"/>
  <testcase time="0" classname="mieszko.test.PersonTest" name="testFindAllGameByName"/>
  <testcase time="0" classname="mieszko.test.PersonTest" name="testFindAllGameByType"/>
  <testcase time="0.001" classname="mieszko.test.PersonTest" name="testFindAllGameByReleaseYear"/>
  <testcase time="0" classname="mieszko.test.PersonTest" name="testGetListOfGame"/>
  <testcase time="0.001" classname="mieszko.test.PersonTest" name="testSetListOfGame"/>
  <testcase time="0.002" classname="mieszko.test.PersonTest" name="testPriceException"/>
</testsuite>